@startuml
start
:List of Netbox Users to change password;
:Get Netbox Admin password from Vault;
:Get a Netbox Admin Token;
:Get Netbox Users' IDs;
repeat
    :Generate new password;
    :Store new password in vault;
    :Change Netbox User password;
repeat while (more Netbox User?)
stop
@enduml
