@startuml Netbox & SAML Integration
!include https://raw.githubusercontent.com/plantuml-stdlib/C4-PlantUML/master/C4_Component.puml

Person(user, "User")
Person(admin, "Administrator")

Component(rps1, "RPS", $techn="Nginx+", $descr="Reverse Proxy Server. Integrate SAML as Service Provider.")
Component(eulogin, "EULogin", $techn="IdP", $descr="EU Login is the European Commission's user authentication service. Integrate SAML as Indetity Provider.")
Component(netbox, "Netbox", $techn="Python/Django", $descr="Provide CMDB Service.")
Component(rps2, "RPS", $techn="Nginx+", $descr="Reverse Proxy Server. Serve Netbox for direct usage.")

Rel(user, rps1, "Request", "https")
Rel(rps1, eulogin, "Delegate", "SAML")
Rel(rps1, netbox, "Request", "http")
Rel(admin, rps2, "Request", "https")
Rel(rps2, netbox, "Request", "http")
@enduml
